607154 : umls:C2607914
600807 : umls:C1833269 umls:C1833270 umls:C1869116
603165 : umls:C0011615 umls:C1864155
154800 : umls:C0024899 umls:C0042111
161400 : umls:C0007384 umls:C1834372
137580 : umls:C0040517 umls:C1392622

607154 : umls:C2607914
603165 : umls:C0011615 umls:C1864155
266600 : umls:C0009324 umls:C0010346 umls:C2675113
159400 : umls:C1834635 
158280 : umls:C0026603
600807 : umls:C1833269 umls:C1833270 umls:C1869116
609148 : umls:C1836721
126200 : umls:C1868685 umls:C3888106
277400 : umls:C1848561
152427 : umls:C1416572 umls:C1865020 umls:C3150943 umls:C3276240 umls:C3277700 umls:C3279092 umls:C3279093 umls:C3888153 umls:C4016248
601144 : umls:C1142166 umls:C2748542

607154 : umls:C2607914
609135 : umls:C0002874 umls:C2684859
109350 : umls:C0017168 umls:C3813607
604302 : umls:C1858558
181500 : umls:C0036337 umls:C0036341
600807 : umls:C1833269 umls:C1833270 umls:C1869116
131100 : umls:C0025267 umls:C3149237

104300 : umls:C0002395 umls:C1541844 umls:C1863052 umls:C1863053 umls:C3549448
143465 : umls:C1263846
190300 : umls:C1860861
601665 : umls:C0028754 umls:C0039870
168600 : umls:C3160718
181500 : umls:C0036337 umls:C0036341
157300 : umls:C0149931 umls:C3887485
161400 : umls:C0007384 umls:C1834372
137580 : umls:C0040517 umls:C1392622

607154 : umls:C2607914
603165 : umls:C0011615 umls:C1864155
600807 : umls:C1833269 umls:C1833270 umls:C1869116
114480 : umls:C0006142 umls:C0346153 umls:C1861906
168600 : umls:C3160718
266600 : umls:C0009324 umls:C0010346 umls:C2675113
126200 : umls:C1868685 umls:C3888106 
