umls:C1834751
umls:C0268095
umls:C0004943
umls:C0022521
umls:C2676235
umls:C2677085
umls:C2678473
umls:C1837616
umls:C1837618
umls:C1847554
umls:C0013405
umls:C1956415
umls:C3495801
umls:C2751630
umls:C0036400
umls:C0034065
umls:C0524702
umls:C0034091
umls:C1832529
umls:C0007930
umls:C1848392
umls:C3501265
umls:C1854368
umls:C1866053
umls:C2931296
umls:C0796094
umls:C0543874
umls:C1860518
umls:C0155305
umls:C3489733
umls:C0271270
umls:C0338507
umls:C0521723
umls:C0751711
umls:C0338586
umls:C0751815
umls:C0751799
umls:C0475072
umls:C0273058
umls:C0751814
umls:C0342286
umls:C0039483
umls:C1956391
umls:C0752332
umls:C0752335
umls:C0282492
umls:C0018946
umls:C0749098
umls:C0038525
umls:C2937358
umls:C0151699
umls:C0002965
umls:C0340288
umls:C0002962
umls:C0553692
umls:C0002963
umls:C0751530
umls:C0577698
umls:C0242084
umls:C2931193
umls:C1857749
umls:C1862932
umls:C2675485
umls:C2677336
umls:C2677337
umls:C2678469
umls:C1864723
umls:C0085220
umls:C2931784
umls:C0338582
umls:C0011269
umls:C0011263
umls:C0393561
umls:C0270786
umls:C0343192
umls:C0018202
umls:C0751878
umls:C1859598
umls:C0032001
umls:C1861786
umls:C1857776
umls:C0004135
umls:C1876175
umls:C0002986
umls:C0268393
umls:C1510489
umls:C1867773
umls:C0878677
umls:C0268394
umls:C1527338
umls:C0175702
umls:C0751587
umls:C0917804
umls:C0007772
umls:C0023529
umls:C0752156
umls:C0158638
umls:C0752155
umls:C1857844
umls:C1861785
umls:C2930808
umls:C0751280
umls:C0038454
umls:C0007786
umls:C0948008
umls:C0007785
umls:C0917798
umls:C0007787
umls:C0007273
umls:C0007282
umls:C0019562
umls:C0577631
umls:C0007766
umls:C0740391
umls:C0740392
umls:C0235946
umls:C0037019
umls:C0751955
umls:C0007820
umls:C0752308
umls:C0751956
umls:C0026654
umls:C2931384
umls:C0917996
umls:C0007771
umls:C3178801
umls:C0751633
umls:C0752304
umls:C0265110
umls:C0333559
umls:C0039984
umls:C0917805
umls:C2733158
umls:C0151945
umls:C0752143
umls:C0022118
umls:C0020651
umls:C0751895
umls:C0340569
umls:C0007274
umls:C0037198
umls:C0751003
umls:C0079102
umls:C0007775
umls:C0752130
umls:C0752138
umls:C0007781
umls:C0338575
umls:C0752140
umls:C0007774
umls:C1840438
umls:C0006091
umls:C0007780
umls:C0751007
umls:C0877854
umls:C0043019
umls:C2675484
umls:C0596298
umls:C0740376
umls:C1836757
umls:C1837418
umls:C1837894
umls:C1846689
umls:C0270639
umls:C0751635
umls:C2919945
umls:C0752160
umls:C2931263
umls:C0038505
umls:C1857587
umls:C2931482
umls:C2752042
umls:C0026764
umls:C0024419
umls:C0278722
umls:C0270710
umls:C0018920
umls:C1961121
umls:C0406810
umls:C1837245
umls:C2607929
umls:C0262436
umls:C0282607
umls:C0018809
umls:C1959584
umls:C2936702
umls:C0796184
umls:C1836929
umls:C0432254
umls:C1834120
umls:C1839463
umls:C2936331
umls:C0410173
umls:C2936332
umls:C1858593
umls:C1832525
umls:C0877024
umls:C0022541
umls:C2931928
umls:C1846059
umls:C1863557
umls:C1837317
umls:C1838577
umls:C2673195
umls:C0342788
umls:C1833688
umls:C0796022
umls:C1865285
umls:C0795833
umls:C1970173
umls:C0162671
umls:C1969443
umls:C1838103
umls:C1858424
umls:C0796154
umls:C1832370
umls:C2931104
umls:C0796137
umls:C2673677
umls:C0948368
umls:C1848599
umls:C0240903
umls:C1859406
umls:C1859372
umls:C2676510
umls:C1852924
umls:C2675369
umls:C2678480
umls:C0012236
umls:C0220704
umls:C2936346
umls:C0795907
umls:C3266101
umls:C1832431
umls:C0795905
umls:C3501846
umls:C1849453
umls:C1855607
umls:C0028326
umls:C0024796
umls:C0175704
umls:C1321551
umls:C0268365
umls:C2931058
umls:C0041409
umls:C1860991
umls:C1969056
umls:C1969057
umls:C2750732
umls:C1853120
umls:C1854469
umls:C1832916
umls:C0729582
umls:C0796032
umls:C1855305
umls:C0175701
umls:C2697932
umls:C0265264
umls:C1735591
umls:C1836635
umls:C1862170
umls:C1857829
umls:C2674574
umls:C2674876
umls:C1845717
umls:C0009492
umls:C1841989
umls:C0265363
umls:C1839021
umls:C0041408
umls:C0242526
umls:C1837026
umls:C0020545
umls:C0020544
umls:C0035066
umls:C0035067
umls:C2242703
umls:C0152002
umls:C1171363
umls:C0042341
umls:C0852036
umls:C0032963
umls:C0565599
umls:C1858556
umls:C0011884
umls:C0154830
umls:C0339470
umls:C0342245
umls:C1846265
umls:C0035328
umls:C0152026
umls:C0035326
umls:C0154832
umls:C0035302
umls:C1859317
umls:C0271073
umls:C0007688
umls:C1527411
umls:C0431498
umls:C3151237
umls:C0206138
umls:C1856128
umls:C1832942
umls:C0085280
umls:C0220708
umls:C1857761
umls:C1956125
umls:C2930797
umls:C0151950
umls:C0856761
umls:C0019156
umls:C0019154
umls:C0162529
umls:C0019112
umls:C0267412
umls:C0267211
umls:C0025472
umls:C2931915
umls:C1412000
umls:C0003496
umls:C0741160
umls:C0007192
umls:C0085642
umls:C2673186
umls:C0002994
umls:C1857728
umls:C2717905
umls:C2931758
umls:C1862892
umls:C2717906
umls:C0206172
umls:C1456868
umls:C0039263
umls:C0042344
umls:C0031036
umls:C0345419
umls:C0553548
umls:C0035126
umls:C0149721
umls:C0027055
umls:C0018800
umls:C0232197
umls:C0004238
umls:C0085298
umls:C0039231
umls:C0162770
umls:C0003811
umls:C0042510
umls:C0235480
umls:C0428977
umls:C0694539
umls:C0042514
umls:C0021775
umls:C1631597
umls:C0004245
umls:C0040479
umls:C0030587
umls:C0340493
umls:C0018794
umls:C1720824
umls:C0340489
umls:C0340279
umls:C0428908
umls:C0522055
umls:C0039240
umls:C0151517
umls:C0206146
umls:C0037052
umls:C1383860
umls:C0264732
umls:C1879286
umls:C0344911
umls:C0036980
umls:C0039239
umls:C0151636
umls:C0264733
umls:C0007166
umls:C0948031
umls:C0559106
umls:C0232347
umls:C2348199
umls:C1970298
umls:C0039235
umls:C0085615
umls:C0221047
umls:C1837014
umls:C1841658
umls:C1843687
umls:C0013608
umls:C0023211
umls:C0340491
umls:C0595862
umls:C0232119
umls:C0037188
umls:C0078888
umls:C0085128
umls:C0085614
umls:C0206145
umls:C1861983
umls:C1861984
umls:C1862394
umls:C1969099
umls:C1970119
umls:C2677106
umls:C2677294
umls:C2751607
umls:C2751829
umls:C2751898
umls:C2930902
umls:C0344955
umls:C1834144
umls:C1837812
umls:C1837845
umls:C0238705
umls:C0264734
umls:C0264886
umls:C3534591
umls:C2717865
umls:C0151436
umls:C0026691
umls:C2936917
umls:C1843004
umls:C0036474
umls:C0034152
umls:C0008728
umls:C0010403
umls:C0013720
umls:C0033847
umls:C0268335
umls:C0268338
umls:C1869122
umls:C2700425
umls:C0268336
umls:C0268344
umls:C0268345
umls:C0268350
umls:C0268353
umls:C0406549
umls:C0432336
umls:C0268337
umls:C1857034
umls:C1867450
umls:C1835813
umls:C1848029
umls:C1851801
umls:C0268341
umls:C0268347
umls:C0266642
umls:C0039445
umls:C3178805
umls:C3178806
umls:C1866091
umls:C1844020
umls:C1857688
umls:C1832774
umls:C1832813
umls:C1838163
umls:C1853444
umls:C1853509
umls:C0265357
umls:C0600502
umls:C0037018
umls:C0037998
umls:C0011875
umls:C0853897
umls:C0025945
umls:C1275081
umls:C0019243
umls:C1832600
umls:C1842180
umls:C1854063
umls:C0023976
umls:C0003855
umls:C1141890
umls:C0035828
umls:C1563715
umls:C2732979
umls:C0155675
umls:C1838539
umls:C3150943
umls:C2678485
umls:C2931401
umls:C3150953
umls:C1859062
umls:C1865018
umls:C1865019
umls:C1865020
umls:C1867904
umls:C2678483
umls:C2678484
umls:C2751830
umls:C1833154
umls:C0574083
umls:C1849813
umls:C0018817
umls:C0018798
umls:C0152021
umls:C0039685
umls:C0018818
umls:C0949658
umls:C0349788
umls:C0003857
umls:C1142166
umls:C0013274
umls:C0158570
umls:C0243050
umls:C0018816
umls:C0152101
umls:C1389018
umls:C0041207
umls:C0016522
umls:C3495498
umls:C0265808
umls:C1857586
umls:C0013069
umls:C0014116
umls:C1389016
umls:C0043202
umls:C0344724
umls:C0344783
umls:C0003492
umls:C0011813
umls:C0040761
umls:C0022387
umls:C1837341
umls:C0013743
umls:C0242855
umls:C0010074
umls:C0013481
umls:C0344787
umls:C0344893
umls:C0344975
umls:C0685707
umls:C0243002
umls:C3665607
umls:C1862389
umls:C1858379
umls:C1858725
umls:C1955837
umls:C2676723
umls:C2748542
umls:C1848587
umls:C1384670
umls:C0344923
umls:C0265857
umls:C3279790
umls:C0205700
umls:C1857777
umls:C1858378
umls:C1861065
umls:C1861862
umls:C1861863
umls:C1861864
umls:C1862511
umls:C1864850
umls:C1865881
umls:C1865882
umls:C1868570
umls:C1969081
umls:C1969657
umls:C2673193
umls:C2677506
umls:C2678477
umls:C2678478
umls:C2717907
umls:C2748541
umls:C2748552
umls:C2750459
umls:C2750467
umls:C2750472
umls:C2751083
umls:C2751088
umls:C2751089
umls:C2751315
umls:C2930805
umls:C0344730
umls:C0344882
umls:C0344900
umls:C0344976
umls:C0010334
umls:C1832931
umls:C1833236
umls:C1834460
umls:C1836906
umls:C1837471
umls:C1838437
umls:C1842778
umls:C1843896
umls:C1851504
umls:C0265807
umls:C0948355
umls:C0020538
umls:C0004153
umls:C0003850
umls:C0007222
umls:C0010068
umls:C0027051
umls:C1956346
umls:C0010054
umls:C0018801
umls:C0018802
umls:C0151744
umls:C0878544
umls:C0007193
umls:C0042373
umls:C0018799
umls:C0948089
umls:C0085580
umls:C0155626
umls:C0026269
umls:C0003486
umls:C0007194
umls:C0162871
umls:C1449563
umls:C0018790
umls:C0042384
umls:C0040053
umls:C0002940
umls:C1861172
umls:C0085096
umls:C0162872
umls:C0040038
umls:C0027059
umls:C0149871
umls:C1704436
umls:C0042487
umls:C0003507
umls:C0264716
umls:C0242231
umls:C0020649
umls:C0242698
umls:C3542024
umls:C0948480
umls:C0040021
umls:C0042345
umls:C0003504
umls:C0340427
umls:C0003838
umls:C0018824
umls:C0010051
umls:C0010072
umls:C0340629
umls:C0340293
umls:C0334533
umls:C0026267
umls:C0003493
umls:C1541923
umls:C0162869
umls:C0026266
umls:C0031039
umls:C0206064
umls:C0002949
umls:C0039446
umls:C1260873
umls:C0017327
umls:C0265101
umls:C0010073
umls:C0014118
umls:C0948441
umls:C1306889
umls:C0034734
umls:C0242973
umls:C0020452
umls:C1135191
umls:C1135196
umls:C1277187
umls:C0151814
umls:C0007196
umls:C0024054
umls:C0262988
umls:C0003851
umls:C0392077
umls:C0003499
umls:C0235527
umls:C0026265
umls:C0034089
umls:C0345050
umls:C0553980
umls:C1696708
umls:C3276706
umls:C0235222
umls:C0264683
umls:C1739395
umls:C0264939
umls:C1861861
umls:C0032915
umls:C0340613
umls:C1959583
umls:C0264766
umls:C0020540
umls:C0016052
umls:C0018813
umls:C0040961
umls:C3665365
umls:C0235522
umls:C1956257
umls:C0031046
umls:C0033141
umls:C0085411
umls:C0022739
umls:C0264684
umls:C0264789
umls:C1318520
umls:C0042485
umls:C0013922
umls:C0014117
umls:C0020546
umls:C0349516
umls:C0031542
umls:C0034072
umls:C1708371
umls:C1832244
umls:C0242707
umls:C0264714
umls:C0869523
umls:C1456822
umls:C1510431
umls:C0003860
umls:C0014804
umls:C0014805
umls:C0023212
umls:C0878486
umls:C1328843
umls:C1689817
umls:C0343084
umls:C0034735
umls:C0036529
umls:C0238096
umls:C0264797
umls:C2717899
umls:C2750995
umls:C0040046
umls:C0042512
umls:C0149649
umls:C1843003
umls:C1853365
umls:C0002992
umls:C0340630
umls:C0238074
umls:C0277919
umls:C2939447
umls:C3668940
umls:C3839346
umls:C2931157
umls:C3150958
umls:C3151039
umls:C3160720
umls:C3160733
umls:C3532243
umls:C0031048
umls:C0032807
umls:C0038833
umls:C0040962
umls:C0085307
umls:C1858154
umls:C1858763
umls:C1865071
umls:C1969024
umls:C1969639
umls:C1970440
umls:C2349195
umls:C2676271
umls:C2677338
umls:C2678470
umls:C2678474
umls:C2678475
umls:C2678476
umls:C2713497
umls:C2750091
umls:C2750466
umls:C2751084
umls:C2752072
umls:C0340305
umls:C0340375
umls:C0340566
umls:C0340726
umls:C0398626
umls:C0553982
umls:C0007177
umls:C0012628
umls:C0018814
umls:C1832243
umls:C1832680
umls:C1834155
umls:C1834481
umls:C1835814
umls:C1835926
umls:C1835928
umls:C1836302
umls:C1837739
umls:C1837839
umls:C1842247
umls:C1843791
umls:C1843808
umls:C1846837
umls:C1847493
umls:C1847667
umls:C1853364
umls:C1854159
umls:C1854631
umls:C0234959
umls:C0264802
umls:C0265122
umls:C1273070
umls:C1290379
umls:C1290386
umls:C0343525
umls:C0035439
umls:C0014121
umls:C0014122
umls:C0175708
umls:C0596270
