umls:C0001430
umls:C0001723
umls:C0085762
umls:C0001956
umls:C0236663
umls:C0236664
umls:C0001973
umls:C0002395
umls:C0002622
umls:C0236733
umls:C0003123 umls:C1963063
umls:C0003125
umls:C0233523 umls:C2919119
umls:C0003431
umls:C0003469
umls:C0003944
umls:C0004096 umls:C2984299
umls:C0003850 umls:C0004153
umls:C1263846
umls:C1510586
umls:C0004352
umls:C0085281
umls:C0005586
umls:C0853193
umls:C0518010
umls:C0006012
umls:C0428977 umls:C3812171
umls:C0270611
umls:C0006274
umls:C0006287
umls:C0006370 umls:C2267227
umls:C0007370
umls:C0700095
umls:C0150055
umls:C0009171
umls:C0600427
umls:C0236736
umls:C0011253
umls:C0011570 umls:C0011581 umls:C0344315 umls:C0460137 umls:C0812393 umls:C1999266
umls:C0011581
umls:C1269683
umls:C0011615
umls:C0011849
umls:C0011853
umls:C0011860
umls:C0013146
umls:C0038580 umls:C1510472
umls:C0013386
umls:C0013384
umls:C0013473
umls:C0014175
umls:C0014544
umls:C0014556
umls:C0015672
umls:C0015674
umls:C0018681
umls:C0018801 umls:C0018802
umls:C0018817
umls:C0600241
umls:C0019337
umls:C0020429
umls:C0020456
umls:C0424295
umls:C0020505
umls:C0020538 umls:C1963138
umls:C0085580
umls:C0020542
umls:C0020649 umls:C3163620
umls:C0021122
umls:C0021368
umls:C0021670
umls:C0022116
umls:C1416965 umls:C1852197
umls:C1416966 umls:C1839839
umls:C1970943
umls:C1970944
umls:C1970945
umls:C2700438
umls:C2700439
umls:C2700440
umls:C0376358
umls:C0024809
umls:C0025261
umls:C0004936
umls:C0524620
umls:C1456624
umls:C0149931
umls:C0338908
umls:C0525045
umls:C0027497 umls:C1963179
umls:C0027651
umls:C0027765
umls:C0027819 umls:C0700095 umls:C3540583
umls:C0206754
umls:C1842981
umls:C0028043
umls:C0028754 umls:C1963185
umls:C0028768 umls:C0600104
umls:C0524662
umls:C0152115
umls:C0029421
umls:C0030193 umls:C0242936 umls:C1549543 umls:C1557397 umls:C1882272 umls:C2598155
umls:C0030319 umls:C1868649
umls:C1868649
umls:C0030567
umls:C0242422
umls:C0031212
umls:C0233849
umls:C0031511
umls:C0032002
umls:C0032285
umls:C0033054
umls:C1306459
umls:C0033375
umls:C0600139
umls:C0033578
umls:C0033941
umls:C0033975 umls:C0349204
umls:C0033975
umls:C0024117 umls:C1847014
umls:C0036337
umls:C0036341
umls:C3825704
umls:C0036572
umls:C0282350 umls:C0562386
umls:C0037317 umls:C0851578
umls:C0038220
umls:C3825627
umls:C0038436
umls:C0038443
umls:C0740858
umls:C0038580
umls:C0237123 umls:C1705534
umls:C0038586
umls:C0038587
umls:C0236969
umls:C0686347 umls:C3714760
umls:C0040517
umls:C0041696
umls:C0043094 umls:C2911647
umls:C2911647
umls:C1262477 umls:C2911645
umls:C0087169
