Nanopublications: 6213
Head triples: 43491 (average: 7.0)
Assertion triples: 31065 (average: 5.0)
Provenance triples: 55917 (average: 9.0)
Pubinfo triples: 80769 (average: 13.0)
Total triples: 211242 (average: 34.0)
v3.0.0
Nanopublications: 19013
Head triples: 133091 (average: 7.0)
Assertion triples: 95065 (average: 5.0)
Provenance triples: 171117 (average: 9.0)
Pubinfo triples: 247169 (average: 13.0)
Total triples: 646442 (average: 34.0)
v4.0.0
Nanopublications: 35972
Head triples: 251804 (average: 7.0)
Assertion triples: 179860 (average: 5.0)
Provenance triples: 323748 (average: 9.0)
Pubinfo triples: 467636 (average: 13.0)
Total triples: 1223048 (average: 34.0)
