file,reusableCount,inputCount,reuseCount,topicMatchCount,intopicDuplCount,outTopicDuplCount,topicMatchErrors
825.trig.gz,0,42,0,0,0,0,0
826.trig.gz,42,42,42,0,0,0,0
827.trig.gz,42,42,42,0,0,0,0
828.trig.gz,42,42,42,0,0,0,0
829.trig.gz,42,42,42,0,0,0,0
830.trig.gz,42,42,42,0,0,0,0
831.trig.gz,42,42,42,0,0,0,0
832.trig.gz,42,42,42,0,0,0,0
833.trig.gz,42,42,42,0,0,0,0
834.trig.gz,42,42,42,0,0,0,0
835.trig.gz,42,42,42,0,0,0,0
836.trig.gz,42,42,42,0,0,0,0
837.trig.gz,42,42,42,0,0,0,0
838.trig.gz,42,42,42,0,0,0,0
839.trig.gz,42,42,42,0,0,0,0
840.trig.gz,42,42,42,0,0,0,0
841.trig.gz,42,42,42,0,0,0,0
842.trig.gz,42,42,42,0,0,0,0
843.trig.gz,42,42,42,0,0,0,0
844.trig.gz,42,42,42,0,0,0,0
845.trig.gz,42,42,42,0,0,0,0
846.trig.gz,42,42,42,0,0,0,0
847.trig.gz,42,42,42,0,0,0,0
848.trig.gz,42,42,42,0,0,0,0
849.trig.gz,42,42,42,0,0,0,0
850.trig.gz,42,42,42,0,0,0,0
851.trig.gz,42,42,42,0,0,0,0
852.trig.gz,42,42,42,0,0,0,0
853.trig.gz,42,42,42,0,0,0,0
854.trig.gz,42,42,42,0,0,0,0
855.trig.gz,42,42,42,0,0,0,0
856.trig.gz,42,42,42,0,0,0,0
857.trig.gz,42,42,42,0,0,0,0
858.trig.gz,42,42,42,0,0,0,0
859.trig.gz,42,42,42,0,0,0,0
860.trig.gz,42,42,42,0,0,0,0
861.trig.gz,42,42,42,0,0,0,0
862.trig.gz,42,42,42,0,0,0,0
863.trig.gz,42,42,42,0,0,0,0
864.trig.gz,42,42,42,0,0,0,0
865.trig.gz,42,42,42,0,0,0,0
866.trig.gz,42,42,42,0,0,0,0
867.trig.gz,42,42,42,0,0,0,0
868.trig.gz,42,42,42,0,0,0,0
869.trig.gz,42,42,42,0,0,0,0
870.trig.gz,42,42,42,0,0,0,0
871.trig.gz,42,42,42,0,0,0,0
872.trig.gz,42,42,42,0,0,0,0
873.trig.gz,42,42,42,0,0,0,0
874.trig.gz,42,42,42,0,0,0,0
875.trig.gz,42,42,42,0,0,0,0
876.trig.gz,42,42,42,0,0,0,0
877.trig.gz,42,42,42,0,0,0,0
878.trig.gz,42,42,42,0,0,0,0
879.trig.gz,42,42,42,0,0,0,0
880.trig.gz,42,42,42,0,0,0,0
881.trig.gz,42,42,42,0,0,0,0
882.trig.gz,42,42,42,0,0,0,0
883.trig.gz,42,42,42,0,0,0,0
884.trig.gz,42,42,42,0,0,0,0
885.trig.gz,42,42,42,0,0,0,0
